…
``` r
violations %>% mutate(known = grepl("^19", standard)) %>% 
  count(known, standard, sort = TRUE)
```

    ## Source: local data frame [113,278 x 3]
    ## Groups: known [2]
    ## 
    ##    known     standard      n
    ##    <lgl>        <chr>  <int>
    ## 1   TRUE 19101200 E01 184326
    ## 2   TRUE 19100212 A01 132797
    ## 3   TRUE 19100215 B09 105919
    ## 4   TRUE 19100219 D01 100010
    ## 5   TRUE   19040002 A  88755
    ## 6   TRUE   19260100 A  88754
    ## 7   TRUE   19101200 H  87902
    ## 8   TRUE 19100215 A04  86896
    ## 9   TRUE 19100023 C01  81982
    ## 10  TRUE 19030002 A01  81182
    ## # ... with 113,268 more rows
…
